<?xml version="1.0" encoding="UTF-8" standalone="no"?>
<!-- Created with Inkscape (http://www.inkscape.org/) -->

<svg
   xmlns:dc="http://purl.org/dc/elements/1.1/"
   xmlns:cc="http://creativecommons.org/ns#"
   xmlns:rdf="http://www.w3.org/1999/02/22-rdf-syntax-ns#"
   xmlns:svg="http://www.w3.org/2000/svg"
   xmlns="http://www.w3.org/2000/svg"
   xmlns:sodipodi="http://sodipodi.sourceforge.net/DTD/sodipodi-0.dtd"
   xmlns:inkscape="http://www.inkscape.org/namespaces/inkscape"
   width="64mm"
   height="38mm"
   viewBox="0 0 64 38"
   version="1.1"
   id="svg8"
   inkscape:version="0.92.5 (2060ec1f9f, 2020-04-08)"
   sodipodi:docname="net21.svg">
  <defs
     id="defs2" />
  <sodipodi:namedview
     id="base"
     pagecolor="#ffffff"
     bordercolor="#666666"
     borderopacity="1.0"
     inkscape:pageopacity="0.0"
     inkscape:pageshadow="2"
     inkscape:zoom="3.959798"
     inkscape:cx="126.84801"
     inkscape:cy="69.654761"
     inkscape:document-units="mm"
     inkscape:current-layer="layer3"
     showgrid="false"
     borderlayer="true"
     inkscape:showpageshadow="false"
     inkscape:window-width="1920"
     inkscape:window-height="1027"
     inkscape:window-x="-8"
     inkscape:window-y="-8"
     inkscape:window-maximized="1" />
  <metadata
     id="metadata5">
    <rdf:RDF>
      <cc:Work
         rdf:about="">
        <dc:format>image/svg+xml</dc:format>
        <dc:type
           rdf:resource="http://purl.org/dc/dcmitype/StillImage" />
        <dc:title></dc:title>
      </cc:Work>
    </rdf:RDF>
  </metadata>
  <g
     inkscape:groupmode="layer"
     id="layer3"
     inkscape:label="gluing"
     style="display:inline">
    <path
       style="fill:none;stroke:#b4b4b4;stroke-width:0.23999999;stroke-linecap:butt;stroke-linejoin:miter;stroke-miterlimit:4;stroke-dasharray:none;stroke-opacity:1"
       d="m 19.158668,15.108815 c -1.724516,-1.299293 -2.40311,-3.298787 -1.984375,-4.937314 0.543341,-2.1261162 2.657815,-4.4706752 6.11849,-3.7088915 3.756139,0.8268229 4.275855,3.7797615 3.803384,5.8586305"
       id="path829"
       inkscape:connector-curvature="0"
       sodipodi:nodetypes="cssc" />
    <path
       style="fill:none;stroke:#b4b4b4;stroke-width:0.23999999;stroke-linecap:butt;stroke-linejoin:miter;stroke-miterlimit:4;stroke-dasharray:none;stroke-opacity:1"
       d="m 19.205915,23.022691 c -2.740327,1.960752 -8.291853,0.992188 -8.906064,-5.197172 -0.6142112,-6.189361 1.836742,-10.3110747 5.338914,-12.1424855 5.149926,-2.6930801 9.732886,-2.409598 14.032366,-1.4174105 4.299479,0.9921875 6.614584,4.5357142 7.748511,7.890253"
       id="path831"
       inkscape:connector-curvature="0"
       sodipodi:nodetypes="csssc" />
    <path
       style="fill:none;stroke:#b4b4b4;stroke-width:0.23999999;stroke-linecap:butt;stroke-linejoin:miter;stroke-miterlimit:4;stroke-dasharray:none;stroke-opacity:1"
       d="m 44.84133,22.891185 c 1.724516,1.299293 2.40311,3.298787 1.984375,4.937314 -0.543341,2.126116 -2.657815,4.470675 -6.11849,3.708892 -3.756139,-0.826823 -4.275855,-3.779762 -3.803384,-5.858631"
       id="path864"
       inkscape:connector-curvature="0"
       sodipodi:nodetypes="cssc" />
    <path
       style="fill:none;stroke:#b4b4b4;stroke-width:0.23999999;stroke-linecap:butt;stroke-linejoin:miter;stroke-miterlimit:4;stroke-dasharray:none;stroke-opacity:1"
       d="m 44.794083,14.977309 c 2.740327,-1.960752 8.291853,-0.992188 8.906064,5.197172 0.614211,6.189361 -1.836742,10.311075 -5.338914,12.142485 -5.149926,2.693081 -9.732886,2.409599 -14.032366,1.417411 -4.299479,-0.992187 -6.614584,-4.535714 -7.748511,-7.890253"
       id="path866"
       inkscape:connector-curvature="0"
       sodipodi:nodetypes="csssc" />
  </g>
  <g
     inkscape:label="pentagons"
     inkscape:groupmode="layer"
     id="layer1"
     transform="translate(0,-259)"
     style="display:inline">
    <path
       style="fill:#fa9c5e;fill-opacity:0.54901961;stroke:#000000;stroke-width:0.18000001;stroke-linejoin:bevel;stroke-miterlimit:4;stroke-dasharray:none;stroke-opacity:1"
       inkscape:transform-center-x="0.82782415"
       d="M 32,283.09751 22.307674,286.24794 16.317487,278 l 5.990187,-8.24793 9.692325,3.15043"
       id="path815"
       inkscape:connector-curvature="0"
       sodipodi:nodetypes="ccccc" />
    <path
       style="fill:#a1f8ef;fill-opacity:0.54901961;stroke:#000000;stroke-width:0.18000001;stroke-linejoin:bevel;stroke-miterlimit:4;stroke-dasharray:none;stroke-opacity:1"
       inkscape:transform-center-x="-0.82782"
       inkscape:transform-center-y="5.018966e-06"
       d="m 32,272.9025 9.692326,-3.15044 5.990187,8.24794 -5.990187,8.24794 -9.692325,-3.15043"
       id="path817"
       inkscape:connector-curvature="0"
       sodipodi:nodetypes="ccccc" />
  </g>
  <g
     inkscape:groupmode="layer"
     id="layer2"
     inkscape:label="crease"
     style="display:inline">
    <path
       style="fill:none;stroke:#000000;stroke-width:0.18000001;stroke-linecap:butt;stroke-linejoin:bevel;stroke-miterlimit:4;stroke-dasharray:none;stroke-opacity:1"
       d="M 31.999999,24.097509 22.307673,10.752065 41.692327,27.247937 31.999999,13.902497"
       id="path820"
       inkscape:connector-curvature="0" />
    <path
       style="fill:none;stroke:#000000;stroke-width:0.18000001;stroke-linecap:butt;stroke-linejoin:miter;stroke-miterlimit:4;stroke-dasharray:none;stroke-opacity:1"
       d="m 22.307673,10.752065 10e-7,16.49588"
       id="path824"
       inkscape:connector-curvature="0" />
    <path
       style="fill:none;stroke:#000000;stroke-width:0.18000001;stroke-linecap:butt;stroke-linejoin:miter;stroke-miterlimit:4;stroke-dasharray:none;stroke-opacity:1"
       d="m 41.692324,10.752059 3e-6,16.495878"
       id="path826"
       inkscape:connector-curvature="0" />
  </g>
</svg>
